name	moaStr	exp	mut	swa	exp_mut	exp_swa	mut_swa	exp_mut_swa
Azacitidine (NSC102816)	DNMT	-0.0449092451963275	-0.0242489288838404	0.116881247331909	0.21177461297841	-0.0880066264271022	-0.0767399656361265	-0.101928282639726
Cladribine (NSC105014)	Ds	0.346106955766854	-0.125302550791611	-0.271976271739894	0.346791807018833	0.318826525819154	-0.335673040525775	0.256668211273033
Mithramycin (NSC105024)	Rs	-0.316972975192491	-0.0180529774236437	-0.418049327945621	-0.211433874038593	-0.197005676671038	-0.0328235843421753	-0.126370432095908
Asparaginase (NSC109229)	AM,Pi	0.393731530335234	-0.0653153996796871	0.0541855160697742	0.372558934315867	0.225623095608334	0.191496165536892	0.207255309982148
Ifosfamide (NSC109724)	A7,AlkAg	-0.0639186968920094	0.0934685224485368	0.0526489860558687	-0.215341104838865	-0.443834067160321	-0.200263838545163	-0.431137685535121
Benzimate (NSC109874)	Tu	0.358686525147179	NA	0.0299238242569855	0.521455388104248	0.218764444640816	0.212351212724407	0.317848099332377
Acetalax (NSC117186)	NonCan:Cath	0.312061306888061	-0.0533849035849107	0.337837782804832	0.0929298870871351	0.432720739236141	0.240960918835988	0.340467524559158
Fludarabine (NSC118218)	Ds,AM	-0.401855089630507	0.28200577183605	-0.248545495964711	0.149884177874759	-0.293407622727962	-0.286620252100088	-0.0558187617838308
Cisplatin (NSC119875)	A7,AlkAg	0.440622476509199	0.10948629156529	0.0841392945215842	0.422801528048189	0.271655055374944	-0.00698842856247593	0.324882801392168
Dromostanolone Propionate (NSC12198)	Ho	0.188109941255908	-0.0816862696693983	0.384807017209364	0.429645313344843	0.392728216170379	0.0649771921802361	0.617919891319581
Isotretinoin (NSC122758)	Ho,RXR	-0.192181983727176	-0.250823633353517	0.124887216232214	-0.299406322510947	-0.180854336172466	NA	-0.183560108283057
Teniposide (NSC122819)	T2	0.327660728076274	-0.0907491156231568	0.495116505470843	0.330038908747037	0.604289553682011	0.394370808850353	0.563111913564956
Doxorubicin (NSC123127)	T2	-0.0814449993559638	0.0781254684230749	0.0576126774342456	0.0243399521188255	-0.188864741046373	0.233221449593721	-0.154266271568819
Fludarabine (NSC124463)	Ds,AM	0.688576567035407	0.0690315388879618	0.253094219958908	0.597208975049442	0.738692621489119	0.195440718448519	0.73106082474042
Bleomycin (NSC125066)	Db	0.631792001607734	-0.127616901230273	0.604565604700084	0.622787394930892	0.580047130804648	0.504919345032368	0.565565642285903
Paclitaxel (NSC125973)	Tu	0.645199848328068	-0.130086592224437	0.150060414435085	0.545889440373365	0.538451711316195	-0.0332404498018713	0.494116587574156
Decitabine (NSC127716)	AM,DNMT	-0.00495477956109618	0.0100238701649247	0.0199823259709985	-0.0894096269985216	0.176738124175059	0.0112117255420065	-0.00136344406257334
Mitomycin (NSC134727)	A2	0.143644318559418	-0.05810868641324	-0.386212303232574	0.140514102224197	-0.0987258343329261	-0.476104542559854	0.054979874058622
Bendamustine (NSC138783)	AlkAg,A2,A6	0.126284356458937	0.0131272229136345	0.349353578312839	0.0327461873773457	0.229897679145581	0.244949866051627	0.296100222312408
Allopurinol (NSC1390)	AM	0.219141089945566	-0.0287156252052482	0.203175670909558	0.212326941117488	0.20066411542843	0.315594857643103	0.099204905774142
Etoposide (NSC141540)	T2	0.427362004602789	-0.155215633476254	0.434701877148089	0.373981784611504	0.507539059294899	0.446728554495086	0.514200931186755
Homoharringtonine (NSC141633)	Apo,Pi,Ang	0.336264350491188	-0.0248635740669955	-0.071114839541667	0.289202322162602	0.333867694739375	-0.0811133747572392	0.296140066005269
Acrichine (NSC14229)	Db,AP	-0.0447694069836264	-0.00537701195181767	-0.147185890493895	-0.146280007700091	-0.11626025595751	-0.104503057149631	-0.191470239999217
Mithramycin (NSC143020)	Rs	-0.101315317609778	-0.0650615528680598	-0.217351782584046	-0.135181773489672	-0.141175886570902	-0.145862779996624	-0.134495417960898
Tegafur (NSC148958)	Df	0.17457455947185	0.0510791802602366	0.131181429948323	0.125903762539778	-0.0316788998749182	-0.270440130571984	0.012305301640801
Parthenolide (NSC157035)	Apo	0.168808554773236	-0.0684663131657609	-0.214369027178826	0.127735302570274	-0.0845560284091443	-0.297291077094471	-0.0489498090606436
Dexrazoxane (NSC169780)	T2	0.102333445532627	0.0051101649724678	0.113793378758905	-0.02309589111398	0.0325122440330838	0.219948041436065	0.0551941880500834
Pimozide (NSC170984)	NonCan:Psy	-0.150689571119499	0.0578295522098259	-0.0538891499748038	-0.108602618913745	-0.304954665667182	-0.132903315584348	-0.372552615319514
Elesclomol (NSC174939)	ROS1	-0.0241331394278012	NA	0.0340807742166086	-0.153901888235209	0.00102453023947641	-0.100092073444031	-0.145115402108373
Tamoxifen (NSC180973)	Ho	-0.0132972704571669	-0.222478008093441	-0.125186399588437	0.204167886205141	0.148380770705854	0.113016127495627	0.188644699349442
Fluorouracil (NSC19893)	Ds,Rs	-0.116388756751009	-0.122940249890137	0.230240994562455	-0.150431830213295	-0.079699964328299	0.00589827960061639	-0.0911794621236205
Wortmannin (NSC221019)	PK:PIK3	0.470303495845752	0.136625717634641	-0.307293958558435	0.292458277912208	0.332066179542988	-0.225515580361224	0.256689666620954
Rapamycin (NSC226080)	STK,PK:MTOR	-0.430494123265198	0.306253164852223	-0.295045357806618	-0.0110070880487245	-0.465617453132052	0.174446199492786	0.0228783939575213
Nandrolone phenpropionate (NSC23162)	Ho,NonCan:Ste	0.320622687973586	0.20772731995237	-0.101311904208299	0.229581977157068	0.229616856039438	-0.222557984318179	0.280639145424739
Testolactone (NSC23759)	Ho	-0.128294652595334	-0.0452047803492842	0.304416742060382	-0.232237453084951	0.200960737034037	0.295589030947837	0.197614717492848
Carboplatin (NSC241240)	A7,AlkAg	0.419773821877675	-0.324688233686282	0.140505183308617	0.394604306319151	0.293104235434099	0.100673879403769	0.224133335195872
Valrubicin (NSC246131)	T2	0.692434780103955	-0.19973120657582	0.383774921032556	0.683406128062415	0.621366541398624	0.454391623367658	0.616719793607357
Pipobroman (NSC25154)	A7,AlkAg	0.712496277133412	-0.131073482103671	0.0653294109693357	0.680862588547408	0.658949104321129	0.0472070271928836	0.650849458753157
geldanamycin analog (NSC255109)	HSP90	0.452308714776302	-0.0908645068095921	0.028917775949525	0.47402712288288	0.163554782696855	0.0220863712461671	0.156469602608565
Idarubicin (NSC256439)	T2	0.494913947133257	-0.140902400240948	0.0448620800813603	0.473075207820713	0.403910258550842	-0.153108849006225	0.420202285104401
Epirubicin (NSC256942)	T2	0.293042316882993	0.276347397994868	0.417211676921471	0.19051731110173	0.254881400170807	0.423127892077449	0.368788294413626
Cyclophosphamide (NSC26271)	A7,AlkAg	0.082945283893706	-0.0492618281531818	-0.133551207868475	0.058491788074268	0.0525007572679384	-0.0419229227868205	-0.0336157118517478
Elliptinium Acetate (NSC264137)	NA	0.512094602161296	-0.0763630355920435	0.455279152191696	0.583764391547023	0.597904893756801	0.380604334522692	0.614706814662992
Oxaliplatin (NSC266046)	A7	0.356645314774552	0.205438372897991	0.413536479865633	0.402317436235304	0.245977400286824	0.2189200651897	0.282756507788499
Mitomycin (NSC26980)	A2	0.512903957942598	-0.0139192292396646	-0.330732934955105	0.476277484008968	0.631999052683653	-0.387754437447207	0.643903689113311
Floxuridine (NSC27640)	Ds	0.179728274474669	-0.0978702432763751	0.14874557134632	0.0681703047171928	0.146141925868146	0.148392995516637	0.197923434236279
Mitoxantrone (NSC279836)	T2	0.48615166323441	NA	0.036326866063036	0.474579977365402	0.47325800678415	0.131638069050509	0.477605140074531
Triciribine phosphate (NSC280594)	STK	0.258942799047798	-0.0754915999904813	-0.339539198348558	0.282137280130702	0.272032000353417	-0.2807381963529	0.292485967355778
BEN (NSC281612)	A7	-0.177408752572498	0.0137392960657989	-0.211114474448773	-0.196594132598162	-0.527953884747425	-0.404835070153581	-0.357296096959838
Cytarabine (NSC287459)	Ds	0.576292044448404	0.0131328415213469	0.274979697928456	0.567443873028799	0.509252288140591	0.191315688508236	0.430638900548416
Mitoxantrone (NSC301739)	T2	0.345986804744611	0.0580731481725623	0.47524742653272	0.267625513455278	0.420186601591423	0.533785999691726	0.446977074373016
Actinomycin D (NSC3053)	Db	0.207353911707196	-0.215419374804498	0.168986293295089	0.228053513484919	0.344222778855255	0.101387035539633	0.290392033116224
Chlorambucil (NSC3088)	A7,AlkAg	0.851919806812266	-0.107336199336798	0.28499733169765	0.846845609547751	0.807388986155937	0.0685935603712597	0.804962476817411
Amonafide (NSC308847)	T2	0.15838774298858	-0.369643042530901	0.247294699202854	0.333213418842404	0.156833648198344	0.333620431239398	0.148019564477603
Fludarabine (NSC312887)	Ds,AM	0.623648334552182	-0.155350222222679	-0.264557499306806	0.739571337297125	0.705494630674761	-0.338699320028338	0.612219128084259
Hydroxyurea (NSC32065)	AM,Dr	0.505199993860149	-0.0404159553586774	0.25040733715858	0.499682623053243	0.573614927298865	0.208777003797777	0.551389211009425
Batracylin (NSC320846)	T2,T1	0.145488763608212	-0.0455408614775089	0.0608747582434694	0.129285164198522	0.0648534973174315	0.0754001963720726	0.035172606069244
Buthionine sulphoximine (NSC326231)	AM	0.0754716194062353	-0.106231441250826	-0.611454843398888	0.0805115701914706	0.000363927610519845	-0.264473663733847	-0.0433165865424302
Curcumin (NSC32982)	Apo	0.162448885018341	-0.117932106206281	0.387130188671561	0.205127157100286	0.233455742499736	0.383383608050726	0.271825334128605
Tanespimycin (NSC330507)	HSP90	0.27152369407994	-0.122427316268804	0.341086026893072	0.337710444159846	0.580073183694385	0.360019070436674	0.579322237944976
Uracil mustard (NSC34462)	A7,AlkAg	0.86695900027838	-0.107329986289149	0.173236702249619	0.863127697889856	0.830905224971067	0.11878371870768	0.829468169843903
8-Chloro-adenosine (NSC354258)	AM	0.251623818294033	-0.0101240641184444	0.181949439838389	0.255062268102359	0.202918603541588	0.222284316559835	0.332275886648395
Hypothemycin (NSC354462)	YK	0.521949472089868	0.616209732191296	0.533726890961756	0.432418343547222	0.471172243145906	0.56446924827463	0.412844335344012
Chelerythrine (NSC36405)	STK,PK:PRKCA	0.645538270218164	-0.0979126470557969	0.262467396849582	0.617321989182424	0.663274978467239	0.155787283666932	0.590186051867261
Fostamatinib (NSC365798)	Ds,Rs,YK,PK:SYK	0.234455848914683	0.023334558558915	-0.364325974225399	0.21536792740575	0.206112135286366	-0.306238706663187	0.165707165216662
Pyrazoloacridine (NSC366140)	Db	0.529121416925439	0.171504782641001	0.54980802975582	0.474618944541978	0.679286140827324	0.442386007960748	0.689714877600594
Imiquimod (NSC369100)	AM	-0.0694763636548753	-0.197525019259166	-0.798152548770444	-0.0749601483229294	-0.00641211604301968	-0.82118763456928	-0.692981615670617
Fenretinide (NSC374551)	Ds	0.261572737364577	-0.0678797602851502	0.303421181130817	0.409489809222701	0.248498765273395	0.401619069648765	0.235958517329372
Dolastatin 10 (NSC376128)	Tu	0.170114567668352	-0.303587191105738	0.0243483344691511	0.146742069587752	0.274091789994462	0.0708373098673661	0.213604006916298
Carmustine (NSC409962)	A7,AlkAg	0.401350815509977	-0.116236626386336	0.55780696666997	0.338623698034731	0.413218699477955	0.549157161140773	0.344866668878977
Dacarbazine (NSC45388)	A7,AlkAg,Ho	0.541089024955053	-0.160614823822655	0.157568728627259	0.516963602891662	0.398817435331672	0.0159669743510822	0.394188352239265
Vinblastine (NSC49842)	Tu	0.324367831736632	-0.0524854851750152	-0.0509922225503727	0.16654415356988	0.197300660770356	-0.0184654828468479	0.148421754182735
Mithramycin (NSC526598)	Rs	-0.107768145491113	-0.0149713682499252	-0.0670930187913498	-0.204769012742968	-0.0698679894692584	-0.126386839297851	-0.149438833814431
Acetalax (NSC59687)	NonCan:Cath	0.316382989111862	-0.0783263996787891	0.345276956302683	0.200733266637665	0.258472411187429	0.22617051804838	0.396306499692723
Rapamycin (NSC606698)	STK,PK:MTOR	-0.419066377264702	0.111831437379742	0.0934998065747079	-0.344486152973446	-0.360778420004654	0.230505286411737	-0.562820162727495
Clofarabine (NSC606869)	Ds	0.141010111651183	-0.307906627307075	-0.336331680378988	0.109467167521841	0.071526466745578	-0.249088691245471	0.0436046024040021
Vinorelbine (NSC608210)	Tu	0.182893091070742	-0.136971746015562	-0.109740707609927	0.286407850082314	0.2104555303256	-0.251881463597743	0.0123113068966926
Topotecan (NSC609699)	T1	0.764905074794846	-0.185512667493436	-0.0968248015510295	0.768431104951742	0.740216571580366	-0.330190068224925	0.750151030170411
Gemcitabine (NSC613327)	Ds	0.479143270376036	-0.167768215840109	0.0756036591669004	0.487358777441579	0.586540068453053	0.154277209101471	0.541273337640931
Acetalax (NSC614826)	NonCan:Cath	0.567325129855354	-0.0043911281878006	0.462241582814963	0.547420197751332	0.46918262906337	0.25240499591248	0.567847742978246
Irinotecan (NSC616348)	T1	0.587663502208834	-0.00525508977349686	0.533765328422586	0.628505950936747	0.609132017592411	0.433453171715558	0.608568347777857
Staurosporine (NSC618487)	PK:PRKCA	0.551933356955235	-0.136984244321473	0.393565063148332	0.446054637503581	0.481049643140923	0.378397276722977	0.42228202277235
3-Bromopyruvate (acid) (NSC62343)	Mito,HK2	0.359020776183863	-0.0231562637305615	-0.0616669725932186	0.346132738471661	0.251387731566293	-0.0237608085033809	0.262236038531725
Pyrazoloacridine (NSC627168)	Db	0.135507044184271	0.0208134112114959	0.58635384197927	0.185610230723996	0.594130701116819	0.52109840793931	0.442438637523296
Docetaxel (NSC628503)	Tu	0.312341712952789	-0.0354599075038015	0.0648499311544089	0.318795435215875	-0.0927394023439058	0.0615176528108369	-0.11221789669491
Lapachone (NSC629749)	NA	0.0917851968820543	0.113572156138323	0.364437876883752	0.055631844697892	0.161586388060377	0.342194308991141	0.213933703749168
Depsipeptide (NSC630176)	HDAC	0.515593864073597	0.0838763001366857	NA	0.459012670733096	0.474244450794086	-0.198558601772088	0.48690791044069
Simvastatin (NSC633782)	AM	0.0144405265256938	-0.32206376015184	-0.208281756176435	0.0810061748206371	-0.082682902716459	0.124074719572082	0.137027135185024
O-6-Benzylguanine (NSC637037)	DDR	-0.346791781392588	0.0122307657128275	-0.0477143553023652	-0.219670469355259	0.00465306824317772	0.159066105413876	0.0278388485778868
7-Hydroxystaurosporine (NSC638646)	STK	0.902089137547698	0.316010864921928	0.678252783113632	0.881868243482005	0.840795130765567	0.73074124475686	0.851272103174557
Cytarabine (NSC63878)	Ds	0.519142487754167	-0.239324292893984	0.0236522223012795	0.498053957351635	0.583041610927723	-0.297678667259884	0.558600869107264
7-Hydroxystaurosporine (NSC638850)	STK	0.204041287781671	-0.0387370499107248	0.212043394498809	0.164579801827887	0.272767149620331	0.138135048512255	0.253699075478161
Raltitrexed (NSC639186)	Ds	0.20833325057096	0.257315032993536	0.460391886069053	0.0125194063059808	0.244095337669461	0.38857443242161	0.258571382844153
Thiotepa (NSC6396)	A7	0.787704622368373	-0.188392081658091	-0.049072146276634	0.76276759476762	0.759455045509115	0.0449819163631186	0.742263959601073
Cordycepin (NSC63984)	Ds	-0.0832041659326083	-0.0188242601599196	-0.291466222794256	-0.124024239284531	-0.164565022223502	-0.455121057916646	-0.192404464914383
Perifosine (NSC639966)	STK,PK:AKT	0.486102991071961	0.0523955295555787	-0.254317569487168	0.41399840206555	0.534500173898002	-0.208851437384691	0.478830966935166
Alvocidib (NSC649890)	STK,PK:CDK	0.212425584246404	-0.123411087568957	-0.399787187312803	0.110598349702749	0.0589027156698162	-0.347191030396385	0.0670381393912937
Midostaurin (NSC656576)	STK,PK:PRKCA	0.399973777078816	0.304865012116793	0.190575400563301	0.376357273005398	0.366111717150026	0.253537104507812	0.310293877564528
XK-469 (NSC656889)	T2	-0.205391356364176	0.010705265641552	0.484296055923466	-0.1970546016334	0.188846623909113	0.531450901221624	0.136055142648391
Triapine (NSC663249)	CC	0.420825695857348	-0.191042637818015	-0.00680175161370447	0.378246614672755	0.25335450451805	0.154783599380862	0.249245578869709
kahalide f (NSC668814)	NA	0.289041482154211	-0.060042883639317	0.1376240539831	0.36794990937579	0.11693593404952	-0.0206694224373007	0.205458269314286
7-Ethyl-10-hydroxycamptothecin (NSC673596)	T1	0.638419266652131	-0.197265417510977	-0.289396093336132	0.650693877035631	0.640769621571931	-0.167175094719434	0.687250289330771
okadaic acid (NSC677083)	Pase	0.202679711341642	-0.142670697792601	0.356157799899537	0.101676887180421	0.170273117412223	0.13094754605002	0.241086825722799
PD-98059 (NSC679828)	STK,PK:MAP2K	-0.0158676454517758	0.463078853309519	0.0489808281838296	-0.102038675356334	-0.00685594619386499	0.0165400159398566	0.0130083723741725
Bortezomib (NSC681239)	PSM	-0.0500644614107268	-0.131432530011376	0.155132122836656	-0.0665020842410675	0.153910884091525	0.167632492781788	0.0411813748940651
Irofulven (NSC683863)	AlkAg,Apo	0.571968357836354	-0.00863952647102025	0.20686610382318	0.618253524736358	0.579963190429932	-0.049240475529794	0.64380548169944
Temsirolimus (NSC683864)	STK,PK:MTOR	0.540615628616141	-0.126207255441777	-0.00557320075707189	0.58951237649517	0.164909499761206	-0.133771830066617	0.278416562063035
Aminoflavone (NSC686288)	Db	0.278071840762151	0.0215948728784742	0.0866661385083228	0.32621645098305	0.111159066531836	0.0706241341504077	0.124608283194106
BN-2629 (NSC694501)	Db	0.176861413391007	0.00945185042946413	0.109367437178828	0.111434428984248	0.0676350390058986	0.171216238553666	0.246321402623767
LY-294002 (NSC697286)	PK:PIK3	-0.0556687028718977	0.00172034771179522	0.213968199307017	-0.086241137166259	-0.42684700267283	-0.0776004481672942	-0.411634192827701
RH1 (NSC697726)	ROS1	0.0903214968696811	-0.079802202571014	0.410075851116295	0.125866265237113	0.399612719677056	0.321363306418011	0.391384480999151
XK-469 (NSC697887)	T2	-0.0993106582920554	0.0187111074214895	-0.0469390502445954	-0.0664392307785392	-0.189966828194017	-0.155938499441744	-0.175829424512818
5-fluoro deoxy uridine 10mer (NSC697912)	NA	0.492840035402834	-0.130769947709382	-0.0742506758298606	0.37129852031371	0.341546130123678	-0.145695927176904	0.296679874479563
Denileukin Diftitox Ontak (NSC697979)	IL	0.104210517473427	0.353490674974958	-0.0055423883665257	-0.0246636227123703	0.114327408952196	0.0580762748654054	-0.0258088654215992
Pemetrexed (NSC698037)	Df,AM	0.454927852984648	-0.0347761368925033	0.00949689170667788	0.455709316229104	0.544847145082008	-0.206379882272946	0.456955600572705
Seliciclib (NSC701554)	STK,PK:CDK	0.108748199633344	-0.0781170749097579	-0.342001485526419	0.114491651012778	0.0937042652071587	-0.175775058979344	0.110155971705046
Vorinostat (NSC701852)	HDAC	0.287590091694485	-0.202816664510056	0.432336488521255	0.294572374282594	0.516628772197565	0.345212891447535	0.544438366158753
Estramustine (NSC702294)	Tu,A7,AlkAg	0.274132439103289	-0.0819683118066133	-0.245896405901367	0.34198820365004	0.260444213316388	-0.253829539071097	0.282932882212911
Arsenic trioxide (NSC706363)	Apo	0.0801515246440128	-0.0435386545183059	0.328772682677447	0.0207562106881815	0.160715393958123	0.303087153896434	0.0583362126271065
Entinostat (NSC706995)	HDAC	0.782299974812157	0.371313793899089	-0.0474486101111879	0.788075260545166	0.739434830900045	-0.0154457135441734	0.762894669967497
Eribulin mesilate (NSC707389)	Tu	0.118628937068086	0.0407356428880036	-0.153935413849806	0.104938224808196	0.169556742961476	-0.255789129533257	0.120973800140085
Alvespimycin (NSC707545)	HSP90	0.376404892759252	-0.0968797360532378	-0.0436628478742493	0.344594519608181	0.353599340589446	-0.193378380046628	0.356969719783934
7-Tert-butyldimethylsilyl-10-hydroxycamptothecin (NSC708298)	T1	-0.248545580997491	-0.21893509398882	0.128604154253597	-0.106532156471557	-0.201536036851229	-0.03454552197036	-0.294045757758892
PX-316 (NSC710297)	STK	-0.22917861591642	-0.102738825019831	0.00644491054276509	-0.253463646864629	0.0270084856684106	-0.239770535050917	-0.331447831288994
AFP464 (NSC710464)	Db	0.512265376794539	-0.281046736622897	0.417660489966646	0.539319163223936	0.525758370199516	0.529606164161105	0.48110335090321
Megestrol acetate (NSC71423)	Ho	0.322449847667887	-0.443378440653223	0.136267426224559	0.103261665035882	0.321134110659161	0.162861023218529	0.320647960573776
Imexon (NSC714597)	Apo	0.653504098498676	-0.156429112704561	0.529802939128993	0.611500442027486	0.691240615379921	0.593923948056138	0.671037341297915
Gefitinib (NSC715055)	YK,PK:EGFR	0.251241437398636	0.0270318415143286	0.1023704005112	0.0866014041215572	0.0580634509174412	-0.175870047824543	-0.070580353182695
Erlotinib (NSC718781)	YK,PK:EGFR	0.33811348174669	-0.338733926896782	0.415743338539915	0.393431898805507	0.447033506508121	0.419854957104862	0.427745262549171
E-7820 (NSC719239)	Ang,ITG	0.000573379306474474	-0.221717760609085	-0.209275275259272	0.0224261982711976	0.078974838347673	-0.184209047301418	0.0763556447612216
Fulvestrant (NSC719276)	Ho	0.448679636441403	-0.0595976936481204	0.132508806112456	0.323230878504606	0.244721123267153	0.0302047122626232	0.248543464959828
Celecoxib (NSC719627)	AM	-0.010244036435719	0.0351506604119879	0.0217875960942383	0.121509393997785	-0.139253512682023	0.132109690193808	0.0760532646798867
Zoledronate (NSC721517)	AM,NonCan:Bone	0.0913708003013186	-0.0880204155130864	-0.174324288529896	-0.0466318391795843	-0.121557520008853	-0.106000504150021	-0.0820940250891837
LMP-400 (NSC724998)	T1	0.503258925866798	-0.042778684570304	-0.0264845861901165	0.519413672406364	0.514856634788866	-0.100996475740904	0.510209486277765
LMP776 (NSC725776)	T1	0.429122953202399	-0.0700306957358872	-0.335735237358508	0.424701763428053	0.453570300524143	-0.262706450749028	0.372755963506847
Belinostat (NSC726630)	HDAC	0.389520350005162	-0.0887127925795741	0.375836092756059	0.364983067753111	0.335337771979654	0.321387970207211	0.414630801500221
Lapatinib (NSC727989)	"YK,PK:EGFR,ERBB2"	0.200007612756452	-0.00163102122691382	-0.146547197741935	0.170978629102042	0.111913460707155	-0.0206117899758547	0.0920743739575931
Irinotecan (NSC728073)	T1	0.591329288889702	-0.297230263867745	-0.334222902563285	0.591368295373695	0.562193433243683	-0.35813487136286	0.531323746546853
Lificguat (NSC728165)	HYP,HIF1	-0.181273794396187	0.104373934794474	-0.0376116507007372	-0.23384836934676	0.0042122873273259	-0.0302296802795701	-0.0288999018682457
SR16157 (NSC732011)	Ho	-0.111187820800086	-0.0843023161938675	0.05387376591174	-0.0385903007021293	-0.0444487974608615	-0.0976081205477893	-0.0757704412457286
Dasatinib (NSC732517)	YK,BCR-ABL,PDGFR,PK:KIT	0.409349789529746	-0.181375201017027	0.530448389637008	0.500835545593437	0.458701963971705	0.525730682675702	0.47144550479549
Everolimus (NSC733504)	STK,PK:MTOR	-0.131971387878261	0.368616717325824	-0.0577210536846364	-7.34061555319306e-05	-0.0386565485430892	0.260666607403482	-0.0776364838407622
Dimethylaminoparthenolide (NSC734325)	NFkB	-0.126277635992676	-0.00705183112190104	0.0939079153730985	-0.0190281963998373	-0.114183247295556	0.0808191919329429	-0.081843072714955
Pazopanib (NSC737754)	YK,PK:VEGFR	-0.279845214335675	-0.0387139520290628	-0.16129413183227	-0.254645590749018	-0.365440651426772	-0.0950499180617238	-0.311161799260969
Methotrexate (NSC740)	Df	0.282173017538396	-0.167039075982674	0.667050652660586	0.34661896929149	0.466765965398643	0.638701014903513	0.485289975188061
Selumetinib (NSC741078)	STK,YK,PK:MAP2K	0.566344371654137	0.416564166999958	0.344031088577652	0.466069454447172	0.31589689619166	0.328542880049073	0.242776719192171
Imatinib (NSC743414)	YK,BCR-ABL	-0.323259644822947	0.0102427071038083	0.0762697836080776	-0.0663462562112824	-0.152126771235287	NA	0.0138785965500855
Obatoclax (NSC744912)	Apo,BCL2	0.365551806032093	-0.15323223472678	0.27584325386595	0.425071672896528	0.287130603899842	0.0537097445455515	0.276005570797447
Lapatinib (NSC745750)	"YK,PK:EGFR,ERBB2"	0.202031679195288	-0.282987694869312	-0.306211898983722	0.131381221786196	0.0756646308608259	-0.207051215162033	-0.0155337007451635
Nelfinavir (NSC747167)	PSM	-0.187524462471704	-0.17646907587619	-0.109837021096775	-0.382146533573826	-0.34157792878923	-0.290407139065091	-0.394078282029563
Nilotinib (NSC747599)	YK,BCR-ABL	0.0303917789454721	-0.0845836275182142	0.1422818186634	-0.00813787092720205	0.219435998916843	0.0950990161250333	0.1868712298468
Olaparib (NSC747856)	PARP	-0.109232808287427	-0.0776721168255405	0.0159496213717917	-0.140588638842213	-0.0199268292300549	-0.0883282749061122	-0.220123615252359
Ixabepilone (NSC747973)	Tu	0.322268647604721	0.211251684936557	0.348244560515624	0.344370393611585	0.248249873822904	0.499798898256843	0.44854016372832
Raloxifene (NSC747974)	Ho	0.0650998858140263	-0.222740138197947	0.179154484063298	-0.191625036205953	0.0781193803586506	0.108094579090108	-0.00979580526287308
Abiraterone (NSC749226)	Ho	0.379966958617637	-0.319407024036847	-0.219462996229035	0.321132048130265	0.168638306143585	-0.150713565623332	0.152933267449491
Abiraterone (NSC749227)	Ho	-0.114418510290805	-0.177629638973625	-0.2911178661944	-0.230006400041307	-0.0484485355646114	-0.309157460212373	-0.0141083102364959
AT-13387 (NSC749712)	HSP90	0.30849903394402	-0.176437471828407	0.175953507036228	0.307888802589778	0.41497946985811	0.140564179183366	0.453634663796537
Sunitinib (NSC750690)	"YK,PDGFR,PK:KIT,VEGFR"	0.137563117243889	-0.383550198711401	-0.264269983256443	0.0150963733796252	-0.10360113648595	0.116034776122225	0.117523731524402
Afatinib (NSC750691)	YK,PK:EGFR	0.384376506244864	0.0246591754426335	-0.0348221226855534	0.331143590480088	0.272904882925177	-0.0958173190918683	0.253242487186432
Salinomycin (NSC751548)	Ab,CD133	-0.237676507796248	0.0804295844807877	-0.331530286003409	-0.258912409700835	-0.38729413541807	-0.275724629900209	-0.388400089984979
6-Thioguanine (NSC752)	Ds	0.125214968241788	0.0584967780456492	0.270118833146841	0.048013023626864	-0.00410793763697914	0.204723441836997	0.0489747837052361
Pazopanib (NSC752782)	YK,PK:VEGFR	0.0036332027258919	0.0615729129306171	-0.00414186518435882	-0.0496309769583448	0.0639223347437162	-0.0507340391780089	0.00216515004270595
Olaparib (NSC753686)	PARP	-0.132006535504384	-0.0395987670420096	0.247784754150974	-0.257994345349538	-0.188331567901797	0.0991450795089781	-0.190555376628858
Itraconazole (NSC754771)	AM	0.156787332927561	-0.261738254028266	-0.165962192096493	0.151437626877342	0.158021560681398	-0.205465458293581	0.0719744020979702
6-Mercaptopurine (NSC755)	Ds	-0.166730251168941	-0.0210045445795014	0.0404865612326174	-0.368878779187098	-0.148845464497737	0.125786247937451	-0.198525689471646
XL-147 (NSC755806)	PK:PIK3	-0.0678376675339101	0.0376445866357561	0.185246534286617	-0.0982822343542989	0.131544607887732	0.30759781798191	-0.0497319400433288
Vismodegib (NSC755809)	YK,SMO	-0.48060055583931	0.0471752759002497	0.246415006477469	-0.448333492647127	0.290824278022091	0.171297358907651	0.271498072825292
Mitomycin (NSC755880)	A2	0.38624279713096	0.206566793908424	-0.237453323518481	0.374725215471142	0.615994822857585	-0.19440243412636	0.5695754820835
Crizotinib (NSC756645)	YK,PK:MET	0.440568807636102	0.203228966668338	-0.0161357328876887	0.323993267213931	0.369690700926653	-0.0930543341627545	0.269042812198204
Daunorubicin (NSC756717)	T2	-0.0846866478654004	0.0195332866586953	0.194814400106318	-0.162436818888776	-0.0328254582896249	0.196416646803345	-0.24082169537408
Digoxin (NSC756738)	NonCan:CardG	0.139839086235099	0.403356752328332	0.621549812591545	0.16420563001256	0.581317478181598	0.643416768147461	0.519256484413159
Ethinyl estradiol (NSC757027)	Ho	0.460066621856111	-0.161613396873032	0.00173565994388807	0.414972119949759	0.341160468054606	-0.212435923133446	0.345731344807857
Fluorouracil (NSC757036)	Ds,Rs	0.258165402946506	0.0660484362649001	-0.451513908401602	0.216773258809172	-0.17758652772898	-0.374372754720889	-0.127519072120377
Nitrogen mustard (NSC757087)	A7,AlkAg	0.535148467087864	-0.00736663821362463	0.432364354573045	0.521341470823241	0.600953847151363	0.448870721710593	0.612389841851362
Melphalan (NSC757098)	A7,AlkAg	0.504399488544118	-0.23688089087151	0.0847006622849058	0.556414816194921	0.505195328731815	0.0427818771343774	0.51308315890124
6-Thioguanine (NSC757348)	Ds	-0.0515778675389273	0.0220615165794199	-0.0124981799876028	-0.139869796612988	-0.28932117650208	0.0492160075942565	-0.102508642675522
Tyrothricin (NSC757363)	Ant	0.668823396948924	-0.156312928275473	0.154170653260686	0.676739427966494	0.409907129445691	0.0458795908881452	0.480765705101336
Cabozantinib (NSC757436)	"YK,PK:MET,VEGFR"	-0.0483366796055889	-0.0924688306820544	-0.41466864950467	-0.0252101686478021	0.164668136922297	-0.361854114842994	0.196888017493034
Axitinib (NSC757441)	YK,PDGFR,PK:VEGFR	-0.0828079878614304	-0.312866046875776	-0.328236463407211	-0.278251950491616	-0.414673084311177	-0.405374631492255	-0.424296889638931
Etoposide (NSC757804)	T2	0.288606783069222	0.025818709583717	0.532293056821085	0.175612602822678	0.388459612096118	0.496145040419426	0.331981111149157
Azacitidine (NSC758186)	DNMT	-0.222244177363874	-0.204370666213996	-0.305681693696892	-0.31390514357347	-0.384687775116822	-0.130554740160058	-0.400914117080923
Floxuridine (NSC758230)	Ds	0.405834871272404	-0.0466564210952978	-0.0820098656123491	0.364954031025631	0.405277871717387	-0.203629286708535	0.382257764647981
Trametinib (NSC758246)	STK,PK:MAP2K	0.470058902304674	0.320695915952485	0.377474405053641	0.415321767020242	0.278007972206562	0.285697591328882	0.294922570553446
Carfilzomib (NSC758252)	PSM	0.584616971251662	-0.0970668789923521	0.379223729040026	0.562286083901651	0.407517363915632	0.193792118600831	0.435195849414339
Homoharringtonine (NSC758253)	Apo,Pi,Ang	0.260217999725857	-0.0888530102276008	0.151394554129821	0.16037243213141	0.179297070436108	0.0663009032274895	0.162772151974676
Teniposide (NSC758255)	T2	-0.0393048673911872	-0.0308201741632641	0.286362968664313	-0.0270792110973024	0.153495451262649	0.217170913676468	0.0932171855809976
Ponatinib (NSC758487)	YK,BCR-ABL	-0.382457214973718	-0.106509632551057	0.126779281771739	-0.383303797878161	-0.517017718199611	-0.377253771069966	-0.404052943811151
Bleomycin (NSC758612)	Db	0.524216626661966	-0.247436640833778	0.332093129690179	0.567682331659534	0.418305769087636	0.229447953951477	0.404656274998655
Paclitaxel (NSC758645)	Tu	0.0392361650768543	0.0171725503196232	-0.183210890005755	0.0955122257949243	-0.207492387072749	-0.124387369565793	-0.0115430621994856
Rapamycin (NSC758664)	STK,PK:MTOR	-0.24804816238832	-0.257093333857199	0.376930638354684	-0.21367449183162	-0.351992438613784	0.30464222930646	-0.337653399158179
Teniposide (NSC758667)	T2	0.329586120658678	0.0485806156128561	0.22655643824129	0.304879735550826	0.299251457438868	0.158106974349041	0.354691622238656
Simvastatin (NSC758706)	AM	0.469228521792678	-0.0332382693699353	0.122525580763333	0.382765439108698	0.26901754431837	0.288153260480567	0.275131979993963
Belinostat (NSC758774)	HDAC	0.678311466104424	-0.153802063304001	0.208108014389353	0.432612065272113	0.561640034426348	0.331491426079628	0.596712830846613
Doxorubicin (NSC759155)	T2	-0.199870008608807	0.0553993419280363	0.30064274535848	-0.0838167344534778	-0.335945513792319	0.412914221320137	-0.200295474820354
Pipamperone (NSC759178)	NonCan:Psy	0.450175411456284	0.0113507232584213	0.285024626090469	0.42400811629156	0.340291991184324	0.289049305492163	0.223290152257834
Idelalisib (NSC759224)	PK:PIK3	0.198497817982755	-0.199569066851243	0.468162520932674	0.232406483876559	0.447305321962969	0.544477933726771	0.446366721949272
Topotecan (NSC759263)	T1	0.681007443384447	-0.232050843894597	-0.0478738675018878	0.668126413617973	0.654456075599166	-0.19843476049142	0.668414050903353
Arsenic trioxide (NSC759274)	Apo	0.00701735969127586	0.116500694562628	0.147254955122524	0.0513646843460173	0.0971819556855248	0.171247765524802	0.00544983536875642
6-Mercaptopurine (NSC759614)	Ds	-0.221460716176487	-0.119852834168226	-0.130698542809889	-0.121247205249386	-0.299755802655582	-0.178539024053591	-0.220149127813322
Docetaxel (NSC759850)	Tu	0.257931618358782	-0.193095974933836	0.162447358548865	0.193035920336969	0.169254051454293	0.219032667260378	0.244612154860308
Vorinostat (NSC759852)	HDAC	-0.244795657806726	-0.0672172655276005	0.0433316498649784	-0.235398074383412	-0.254053520262631	0.0903108434265378	-0.309378570963672
Gefitinib (NSC759856)	YK,PK:EGFR	-0.0447179727260818	-0.118061587238797	0.105268670969334	0.060500064587292	0.0220126538422294	-0.171464917559945	0.0275193345831629
Clofarabine (NSC759857)	Ds	0.433396674432712	-0.0562458253581663	-0.072500583763279	0.429022087137194	0.442325683589459	-0.0495747347895992	0.447114990894891
Dasatinib (NSC759877)	YK,BCR-ABL,PDGFR,PK:KIT	0.649314354277998	-0.000177775195743268	0.401260951959626	0.639867204948705	0.501502912082152	0.441923983564655	0.481951741024201
Irinotecan (NSC759878)	T1	0.713344761304406	-0.139380626903823	0.280890645936603	0.710313494414755	0.681737827890767	0.0701304100019183	0.685449019703857
Vinorelbine (NSC760087)	Tu	0.121418686807397	0.0411786325834292	-0.128958654895225	0.0337577629383036	-0.00299130933075071	-0.181736931924407	-0.0846987652740589
Fenretinide (NSC760419)	Ds	0.0446836927992829	0.0718474223139736	0.204193642214048	0.000885133877732413	0.258218137694287	0.166415356684148	0.214431934811308
Vandetanib (NSC760766)	"YK,PDGFR,PK:EGFR,VEGFR"	0.488427594981499	0.0981543123768688	0.0964238515112561	0.426540867671897	0.436369834353523	0.108662624454128	0.43852907553832
Cabozantinib (NSC761068)	"YK,PK:MET,VEGFR"	-0.15014199480426	-0.105299769952581	0.123668294581284	-0.264630979027864	-0.01468252488727	-0.0538645455773686	-0.22118096034695
Vemurafenib (NSC761431)	YK,PK:BRAF	0.790277222003604	0.896812274278728	0.41837845689918	0.873014984621946	0.760120107885914	0.877522189408398	0.864816923857072
Ibrutinib (NSC761910)	YK	0.471796334667664	-0.156696410645238	-0.0639951839099136	0.551379589312512	0.439345466662678	-0.206437527110563	0.439485764981796
Nitrogen mustard (NSC762)	A7,AlkAg	0.688588411413976	-0.116882509427462	0.396195526378216	0.658344804070561	0.629542305472716	0.376306577356335	0.602583649769845
Dabrafenib (NSC764134)	PK:BRAF	0.836931718800631	NA	0.60284919473063	0.882971986108751	0.858075359122849	0.869493024787444	0.874671641985944
Bosutinib (NSC765694)	YK,BCR-ABL,STAT,PK:SRC	-0.231815858876988	-0.0993224931792695	-0.273123264770764	-0.417565207892915	-0.109053594551054	-0.518219824153095	-0.125757931153876
Procarbazine (NSC77213)	A7,AlkAg	0.122811821928033	0.102464867194898	-0.0248710996397239	NA	0.110753355888665	NA	NA
Lomustine (NSC79037)	AlkAg,A6	0.480732998938328	0.00301293697871328	0.570977274204078	0.372481409100468	0.31352283829312	0.386997883728879	0.351168142440217
Daunorubicin (NSC82151)	T2	0.207259027933458	0.040214850207891	-0.181590530127688	0.239088477445071	-0.101627368702959	-0.167562635342028	0.0627980474643539
Daunorubicin (NSC83142)	T2	-0.269701725476821	-0.0467505979112677	-0.363722497817457	-0.331504871792756	-0.271456396045853	-0.243813677771426	-0.292221372024349
Melphalan (NSC8806)	A7,AlkAg	0.791991016698634	-0.0211466173756519	0.177229993156951	0.781152384102595	0.790889470325067	0.0278104592918605	0.772576162050475
Calusterone (NSC88536)	Ho	-0.262421568359016	-0.0252973146082709	0.0414134970860182	-0.180792364434526	-0.310974229528931	-0.00746465852241548	-0.193859143764568
Estramustine (NSC89201)	Tu,A7,AlkAg	-0.0289538957561645	-0.143496763207903	0.453131450953559	-0.0505007086530762	0.0182779484075226	0.355994003047257	0.0965091008883664
Vinblastine (NSC90636)	Tu	0.162198642945937	-0.339442816521951	0.481145810060348	0.0853197758222985	0.450366649872583	0.299150262869896	0.418993301419043
Arsenic trioxide (NSC92859)	Apo	0.602108088792616	0.0449177845811517	0.594937739741504	0.626300030704732	0.593458053976501	0.540499314819919	0.545877751270158
Triethylenemelamine (NSC9706)	A7,AlkAg	0.771630495825561	-0.230705451602407	-0.145289651847085	0.771425181964578	0.768509745425301	-0.0243035323764299	0.764062443225688
Mithramycin (NSC24559)	Rs	NA	NA	NA	NA	NA	NA	NA
Dexamethasone Decadron (NSC34521)	Ho	NA	NA	NA	NA	NA	NA	NA
Dacarbazine (NSC38721)	A7,AlkAg,Ho	NA	NA	NA	NA	NA	NA	NA
Vincristine (NSC67574)	Tu	NA	NA	NA	NA	NA	NA	NA
Epothilone B (NSC684363)	Tu	NA	NA	NA	NA	NA	NA	NA
Karenitecin (NSC710270)	T1	NA	NA	NA	NA	NA	NA	NA
Depsipeptide (NSC754143)	HDAC	NA	NA	NA	NA	NA	NA	NA
Pralatrexate (NSC754230)	Df,CTNNB1	NA	NA	NA	NA	NA	NA	NA
Actinomycin D (NSC755841)	Db	NA	NA	NA	NA	NA	NA	NA
Nelarabine (NSC755985)	Ds	NA	NA	NA	NA	NA	NA	NA
Vinblastine (NSC757384)	Tu	NA	NA	NA	NA	NA	NA	NA
Vincristine (NSC759174)	Tu	NA	NA	NA	NA	NA	NA	NA
Streptozocin (NSC85998)	A7	NA	NA	NA	NA	NA	NA	NA
Fluphenazine (NSC92339)	NonCan:Psy	NA	NA	NA	NA	NA	NA	NA
Pentostatin (NSC218321)	Ds,AM	NA	NA	NA	NA	NA	NA	NA
Rebimastat (NSC713763)	PSM	NA	NA	NA	NA	NA	NA	NA
