name	moaStr	exp	mut	swa	exp_mut	exp_swa	mut_swa	exp_mut_swa
Fluorouracil (NSC757036)	Ds,Rs	0.398949147531767	0.168723885565954	-0.294275659000466	0.448621141212807	-0.148929871491252	-0.27502591987832	-0.197238274613213
Wortmannin (NSC221019)	PK:PIK3	0.500234071687151	0.170765047945029	-0.241424995920818	0.56879866609489	0.256540297104167	-0.360125932917136	0.319313846912438
Fludarabine (NSC118218)	Ds,AM	-0.289448796227529	0.111800829485436	-0.259365598364517	0.489982617049698	-0.308516381550066	-0.328298693164643	-0.312095049009093
Afatinib (NSC750691)	YK,PK:EGFR	0.198614807313747	0.0102193566823491	-0.668729066344617	0.182928253194465	-0.0324528324372712	-0.443273705321465	-0.0413208530066249
6-Mercaptopurine (NSC759614)	Ds	0.0584640131124928	-0.127900971239435	-0.183736263956403	0.294476762507948	-0.365362661327596	-0.219218054342589	-0.341124253390713
Lapatinib (NSC727989)	"YK,PK:EGFR,ERBB2"	-0.0676272545911385	0.0295990615839898	-0.381904796393401	0.0708575086196254	-0.376429936459397	-0.49708878782843	-0.343749741458842
Estramustine (NSC702294)	Tu,A7,AlkAg	0.00997121027756803	-0.0520144364921365	-0.463301200678696	0.114742378334892	-0.303163874823925	-0.4630164079418	-0.172319343828355
Clofarabine (NSC759857)	Ds	0.411222461986214	-0.160452678643175	-0.689975692803796	0.189493678682464	-0.207212065435939	-0.68998741323751	-0.363561657000126
Mitomycin (NSC134727)	A2	0.360347817600628	-0.213980132432923	-0.276454408922802	0.381046038749206	-0.251817596364226	-0.277611064901944	-0.324673835611232
Mitomycin (NSC26980)	A2	0.318718739886838	-0.119894792015762	-0.161132646787747	0.168974777726787	-0.307369635423966	-0.175899326147199	-0.353621874958517
Azacitidine (NSC758186)	DNMT	0.138756074307948	0.206527579084108	-0.293498715979587	0.263793697295148	-0.421380299485112	-0.257948455951617	-0.326981957737984
Perifosine (NSC639966)	STK,PK:AKT	0.20661144636563	-0.0446617835186619	-0.237006714670533	0.0535821818054109	-0.28699219571023	-0.436303844689874	-0.431975523918044
Fludarabine (NSC312887)	Ds,AM	0.394620209445147	-0.112768761333894	-0.149599352752835	0.460077822388714	0.0690570734861037	-0.27403577088898	-0.0334017270995745
Floxuridine (NSC758230)	Ds	0.243956762391947	-0.0162983807667118	-0.299746122670044	0.359050969147183	0.035616282043	-0.314769630048063	0.0226943375183766
Batracylin (NSC320846)	T2,T1	0.220414747339359	0.0189696921299314	-0.192294029438608	0.240946369643261	-0.0457815237514849	-0.325380974802286	-0.122737937179541
Pimozide (NSC170984)	NonCan:Psy	0.426216742058124	-0.101435529412299	-0.329786574284385	0.120079821357841	-0.256680362206812	-0.368008790551842	-0.374265922487026
7-Ethyl-10-hydroxycamptothecin (NSC673596)	T1	0.00562344870989897	-0.173193017019897	-0.283023473911651	0.332497607886069	-0.333737630501438	-0.286520205208752	-0.472235113591729
Idarubicin (NSC256439)	T2	0.125289155113532	-0.133347669488199	-0.375043955812055	0.178460522604044	-0.236266180254691	-0.503900934949425	-0.12322663251359
Curcumin (NSC32982)	Apo	0.111146874768878	0.189046636442939	-0.29856594160001	0.156132048112852	-0.108607248160469	-0.149881834843542	-0.188904185335132
Mithramycin (NSC105024)	Rs	0.0946666848711939	-0.0984934432445899	-0.416659391673183	-0.099858531822651	-0.53936529941941	-0.322885287401451	-0.450501199082355
Cordycepin (NSC63984)	Ds	0.182378228160963	0.17327277623978	-0.214345369537472	0.112214379438674	-0.226290170846894	-0.1447758624277	-0.257876604502367
Pipamperone (NSC759178)	NonCan:Psy	0.0434851509520381	-0.24253836063452	0.571862671943848	0.11465341014051	0.106302113854138	0.501992871626626	0.0425957073135711
Elliptinium Acetate (NSC264137)	NA	0.460759922024032	-0.21941553282487	0.432595446794871	0.500468930466186	0.683059235185754	0.373843991271254	0.638514242551275
O-6-Benzylguanine (NSC637037)	DDR	-0.252726368722096	-0.309940048764545	0.0607756515069665	-0.32990495478111	-0.0217199831750209	0.0527157106191394	0.00289159067027076
Arsenic trioxide (NSC92859)	Apo	0.480335349273993	0.0664995363940652	0.592483316266445	0.405863751713673	0.754302343288868	0.567460089219706	0.702617631197645
XK-469 (NSC656889)	T2	-0.11488567390049	0.0509944093052	0.14623766809302	-0.261879125442795	0.215886036346469	0.101431705628046	0.162820385973403
Lificguat (NSC728165)	HYP,HIF1	-0.490655036641544	0.0347641062947436	-0.0499351203069336	-0.491079278492946	0.0471009221184841	0.135736009090868	0.0471164910121446
Dabrafenib (NSC764134)	PK:BRAF	0.619760593454332	-0.130913292613216	0.631221701742887	0.63328596150042	0.753970981660664	0.663858569180164	0.726102934488352
Cytarabine (NSC63878)	Ds	0.157215792715813	-0.210112147710671	0.494834107409894	0.280700183257241	0.426020708922492	0.422513258534392	0.319701918757528
Allopurinol (NSC1390)	AM	-0.0193315521265699	-0.0163430094298627	0.244212907358518	-0.0997946832532043	0.314712753644924	0.24583309699228	0.245682777433957
Vinblastine (NSC90636)	Tu	-0.130154548778947	-0.0742030171321682	0.333313947704779	0.0464505188818613	0.600874664250948	0.318336755617097	0.594171527517018
Tanespimycin (NSC330507)	HSP90	0.158064769675673	-0.0542956865680059	0.363873821877285	0.294082501750382	0.523930319380243	0.293352754415641	0.581717562749289
Vismodegib (NSC755809)	YK,SMO	-0.11962528662377	-0.0436365384371232	0.315739098456987	-0.10547353045872	0.379984909585015	0.296250164693021	0.295186633023505
Azacitidine (NSC102816)	DNMT	-0.0190974637401858	-0.0394406905851094	0.309360824288116	-0.0382407196105166	0.295292117183573	0.230402161237473	0.223069249632141
8-Chloro-adenosine (NSC354258)	AM	-0.140495743481072	-0.0205234210011519	0.25504193544864	-0.144169616471363	0.267077790430538	0.294111194173673	0.240608483260586
Nitrogen mustard (NSC757087)	A7,AlkAg	0.244356420839593	0.0242103281303174	0.436771475622745	0.120351385221048	0.432959465420846	0.422794464331647	0.461667321239105
Docetaxel (NSC759850)	Tu	0.0882871310774572	-0.264013031750137	0.179692737649233	0.187646324945582	0.396787646391656	0.193851832903649	0.422518250562057
Vorinostat (NSC701852)	HDAC	0.0881487215912135	-0.134549275041686	0.424951877442972	0.0757106944651568	0.420704541302301	0.330235674113533	0.355740677718437
Belinostat (NSC758774)	HDAC	0.0670195887321823	0.110843291854795	0.375624104264371	0.114806117143345	0.376506449317873	0.524090626892449	0.584174964356742
Pyrazoloacridine (NSC366140)	Db	0.147984752691091	0.274664214348247	0.329302657732257	-0.0193790345631383	0.338125506262654	0.538438868635507	0.472037835224067
kahalide f (NSC668814)	NA	0.57829531449712	-0.391285465413594	0.423546326651662	0.5403633692207	0.632390369799196	0.435413191116776	0.641950552799009
Fenretinide (NSC374551)	Ds	0.536689938745604	-0.339525506784906	0.396183464212676	0.571297425578135	0.704007702478453	0.333828890741809	0.639210603068509
